{
  "images" : [
    {
      "idiom" : "universal",
      "scale" : "1x",
      "filename" : "eG_Dashboard_Header.png"
    },
    {
      "idiom" : "universal",
      "scale" : "2x",
      "filename" : "eG_Dashboard_Header@2x.png"
    },
    {
      "idiom" : "universal",
      "scale" : "3x",
      "filename" : "eG_Dashboard_Header@3x.png"
    }
  ],
  "info" : {
    "version" : 1,
    "author" : "xcode"
  }
}