{
  "images" : [
    {
      "idiom" : "universal",
      "scale" : "1x",
      "filename" : "eG_Contacts_Sort_Alpha.png"
    },
    {
      "idiom" : "universal",
      "scale" : "2x",
      "filename" : "eG_Contacts_Sort_Alpha@2X.png"
    },
    {
      "idiom" : "universal",
      "scale" : "3x",
      "filename" : "eG_Contacts_Sort_Alpha@3X.png"
    }
  ],
  "info" : {
    "version" : 1,
    "author" : "xcode"
  }
}