{
    "Count": 29,
    "Data": [
             {
             "Id": "6a9f913e-5151-4342-98be-9b95d0798002",
             "Fields": [
                        {
                        "Name": "Suffix",
                        "Value": "",
                        "Security": "Read"
                        },
                        {
                        "Name": "FirstName",
                        "Value": "Iris",
                        "Security": "Read"
                        },
                        {
                        "Name": "MiddleName",
                        "Value": "",
                        "Security": "Read"
                        },
                        {
                        "Name": "LastName",
                        "Value": "Cabrera",
                        "Security": "Read"
                        },
                        {
                        "Name": "DisplayName",
                        "Value": "Iris Cabrera",
                        "Security": "Read"
                        },
                        {
                        "Name": "Role",
                        "Value": "Engineer",
                        "Security": "Read"
                        },
                        {
                        "Name": "TeleBusiness1",
                        "Value": "",
                        "Security": "Read"
                        },
                        {
                        "Name": "TeleMobile",
                        "Value": "",
                        "Security": "Read"
                        },
                        {
                        "Name": "EmailAddress",
                        "Value": "ICabrera@kirklandwa.gov",
                        "Security": "Read"
                        }
                        ],
             "Company": {
             "CompanyId": "8fe964af-3a19-42d3-ac74-5a5264b9218a",
             "CompanyName": "City of Kirkland"
             },
             "ContactLink": "http://localjocservice.egordian.com/v1/Users/78917F4D-84B7-4195-9F12-E9F5622B0BCEC/Contacts/6a9f913e-5151-4342-98be-9b95d0798002"
             },
             {
             "Id": "f7d9bfeb-b446-4239-b958-e46ac4e8310c",
             "Fields": [
                        {
                        "Name": "Suffix",
                        "Value": "",
                        "Security": "Read"
                        },
                        {
                        "Name": "FirstName",
                        "Value": "Chris",
                        "Security": "Read"
                        },
                        {
                        "Name": "MiddleName",
                        "Value": "",
                        "Security": "Read"
                        },
                        {
                        "Name": "LastName",
                        "Value": "Dodd",
                        "Security": "Read"
                        },
                        {
                        "Name": "DisplayName",
                        "Value": "Chris Dodd",
                        "Security": "Read"
                        },
                        {
                        "Name": "Role",
                        "Value": "Inspector",
                        "Security": "Read"
                        },
                        {
                        "Name": "TeleBusiness1",
                        "Value": "425-587-3931",
                        "Security": "Read"
                        },
                        {
                        "Name": "TeleMobile",
                        "Value": "",
                        "Security": "Read"
                        },
                        {
                        "Name": "EmailAddress",
                        "Value": "CDodd@kirklandwa.gov",
                        "Security": "Read"
                        }
                        ],
             "Company": {
             "CompanyId": "8fe964af-3a19-42d3-ac74-5a5264b9218a",
             "CompanyName": "City of Kirkland"
             },
             "ContactLink": "http://localjocservice.egordian.com/v1/Users/78917F4D-84B7-4195-9F12-E9F5622B0BCEC/Contacts/f7d9bfeb-b446-4239-b958-e46ac4e8310c"
             },
             {
             "Id": "f7d9bfeb-b446-4239-b958-e46ac4e8310c",
             "Fields": [
                        {
                        "Name": "Suffix",
                        "Value": "",
                        "Security": "Read"
                        },
                        {
                        "Name": "FirstName",
                        "Value": "Chris",
                        "Security": "Read"
                        },
                        {
                        "Name": "MiddleName",
                        "Value": "",
                        "Security": "Read"
                        },
                        {
                        "Name": "LastName",
                        "Value": "Dodd",
                        "Security": "Read"
                        },
                        {
                        "Name": "DisplayName",
                        "Value": "Chris Dodd",
                        "Security": "Read"
                        },
                        {
                        "Name": "Role",
                        "Value": "Project Manager",
                        "Security": "Read"
                        },
                        {
                        "Name": "TeleBusiness1",
                        "Value": "425-587-3931",
                        "Security": "Read"
                        },
                        {
                        "Name": "TeleMobile",
                        "Value": "",
                        "Security": "Read"
                        },
                        {
                        "Name": "EmailAddress",
                        "Value": "CDodd@kirklandwa.gov",
                        "Security": "Read"
                        }
                        ],
             "Company": {
             "CompanyId": "8fe964af-3a19-42d3-ac74-5a5264b9218a",
             "CompanyName": "City of Kirkland"
             },
             "ContactLink": "http://localjocservice.egordian.com/v1/Users/78917F4D-84B7-4195-9F12-E9F5622B0BCEC/Contacts/f7d9bfeb-b446-4239-b958-e46ac4e8310c"
             },
             {
             "Id": "81aaa764-3ac7-45ae-b575-cb8d72b22a53",
             "Fields": [
                        {
                        "Name": "Suffix",
                        "Value": "",
                        "Security": "Read"
                        },
                        {
                        "Name": "FirstName",
                        "Value": "Will",
                        "Security": "Read"
                        },
                        {
                        "Name": "MiddleName",
                        "Value": "",
                        "Security": "Read"
                        },
                        {
                        "Name": "LastName",
                        "Value": "Duckett",
                        "Security": "Read"
                        },
                        {
                        "Name": "DisplayName",
                        "Value": "Will Duckett",
                        "Security": "Read"
                        },
                        {
                        "Name": "Role",
                        "Value": "Contractor Project Manager",
                        "Security": "Read"
                        },
                        {
                        "Name": "TeleBusiness1",
                        "Value": "206-466-2237",
                        "Security": "Read"
                        },
                        {
                        "Name": "TeleMobile",
                        "Value": "509-218-3820",
                        "Security": "Read"
                        },
                        {
                        "Name": "EmailAddress",
                        "Value": "will@burtonconstruction.net",
                        "Security": "Read"
                        }
                        ],
             "Company": {
             "CompanyId": "8fe964af-3a19-42d3-ac74-5a5264b9218a",
             "CompanyName": "City of Kirkland"
             },
             "ContactLink": "http://localjocservice.egordian.com/v1/Users/78917F4D-84B7-4195-9F12-E9F5622B0BCEC/Contacts/81aaa764-3ac7-45ae-b575-cb8d72b22a53"
             },
             {
             "Id": "1ad1bf17-6dda-4e5b-a686-f64d26618864",
             "Fields": [
                        {
                        "Name": "Suffix",
                        "Value": "",
                        "Security": "Read"
                        },
                        {
                        "Name": "FirstName",
                        "Value": "Jason",
                        "Security": "Read"
                        },
                        {
                        "Name": "MiddleName",
                        "Value": "",
                        "Security": "Read"
                        },
                        {
                        "Name": "LastName",
                        "Value": "Filan",
                        "Security": "Read"
                        },
                        {
                        "Name": "DisplayName",
                        "Value": "Jason Filan",
                        "Security": "Read"
                        },
                        {
                        "Name": "Role",
                        "Value": "Project Manager",
                        "Security": "Read"
                        },
                        {
                        "Name": "TeleBusiness1",
                        "Value": "425-587-3341",
                        "Security": "Read"
                        },
                        {
                        "Name": "TeleMobile",
                        "Value": "",
                        "Security": "Read"
                        },
                        {
                        "Name": "EmailAddress",
                        "Value": "JFilan@kirklandwa.gov",
                        "Security": "Read"
                        }
                        ],
             "Company": {
             "CompanyId": "8fe964af-3a19-42d3-ac74-5a5264b9218a",
             "CompanyName": "City of Kirkland"
             },
             "ContactLink": "http://localjocservice.egordian.com/v1/Users/78917F4D-84B7-4195-9F12-E9F5622B0BCEC/Contacts/1ad1bf17-6dda-4e5b-a686-f64d26618864"
             },
             {
             "Id": "1ad1bf17-6dda-4e5b-a686-f64d26618864",
             "Fields": [
                        {
                        "Name": "Suffix",
                        "Value": "",
                        "Security": "Read"
                        },
                        {
                        "Name": "FirstName",
                        "Value": "Jason",
                        "Security": "Read"
                        },
                        {
                        "Name": "MiddleName",
                        "Value": "",
                        "Security": "Read"
                        },
                        {
                        "Name": "LastName",
                        "Value": "Filan",
                        "Security": "Read"
                        },
                        {
                        "Name": "DisplayName",
                        "Value": "Jason Filan",
                        "Security": "Read"
                        },
                        {
                        "Name": "Role",
                        "Value": "Stake Holder",
                        "Security": "Read"
                        },
                        {
                        "Name": "TeleBusiness1",
                        "Value": "425-587-3341",
                        "Security": "Read"
                        },
                        {
                        "Name": "TeleMobile",
                        "Value": "",
                        "Security": "Read"
                        },
                        {
                        "Name": "EmailAddress",
                        "Value": "JFilan@kirklandwa.gov",
                        "Security": "Read"
                        }
                        ],
             "Company": {
             "CompanyId": "8fe964af-3a19-42d3-ac74-5a5264b9218a",
             "CompanyName": "City of Kirkland"
             },
             "ContactLink": "http://localjocservice.egordian.com/v1/Users/78917F4D-84B7-4195-9F12-E9F5622B0BCEC/Contacts/1ad1bf17-6dda-4e5b-a686-f64d26618864"
             },
             {
             "Id": "4c766e38-cc44-4f45-b009-cb439a4a3f46",
             "Fields": [
                        {
                        "Name": "Suffix",
                        "Value": "",
                        "Security": "Read"
                        },
                        {
                        "Name": "FirstName",
                        "Value": "Daryn",
                        "Security": "Read"
                        },
                        {
                        "Name": "MiddleName",
                        "Value": "",
                        "Security": "Read"
                        },
                        {
                        "Name": "LastName",
                        "Value": "Gilstrap",
                        "Security": "Read"
                        },
                        {
                        "Name": "DisplayName",
                        "Value": "Daryn Gilstrap",
                        "Security": "Read"
                        },
                        {
                        "Name": "Role",
                        "Value": "Contractor Project Manager",
                        "Security": "Read"
                        },
                        {
                        "Name": "TeleBusiness1",
                        "Value": "(253) 531-2144",
                        "Security": "Read"
                        },
                        {
                        "Name": "TeleMobile",
                        "Value": "(206) 730-8305",
                        "Security": "Read"
                        },
                        {
                        "Name": "EmailAddress",
                        "Value": "dgilstrap@saybr.com",
                        "Security": "Read"
                        }
                        ],
             "Company": {
             "CompanyId": "8fe964af-3a19-42d3-ac74-5a5264b9218a",
             "CompanyName": "City of Kirkland"
             },
             "ContactLink": "http://localjocservice.egordian.com/v1/Users/78917F4D-84B7-4195-9F12-E9F5622B0BCEC/Contacts/4c766e38-cc44-4f45-b009-cb439a4a3f46"
             },
             {
             "Id": "95536b61-a66b-49cd-83e1-61c9a21da161",
             "Fields": [
                        {
                        "Name": "Suffix",
                        "Value": "",
                        "Security": "Read"
                        },
                        {
                        "Name": "FirstName",
                        "Value": "Scott",
                        "Security": "Read"
                        },
                        {
                        "Name": "MiddleName",
                        "Value": "",
                        "Security": "Read"
                        },
                        {
                        "Name": "LastName",
                        "Value": "Johnson",
                        "Security": "Read"
                        },
                        {
                        "Name": "DisplayName",
                        "Value": "Scott Johnson",
                        "Security": "Read"
                        },
                        {
                        "Name": "Role",
                        "Value": "Contractor Project Manager",
                        "Security": "Read"
                        },
                        {
                        "Name": "TeleBusiness1",
                        "Value": "(206) 949-1445",
                        "Security": "Read"
                        },
                        {
                        "Name": "TeleMobile",
                        "Value": "",
                        "Security": "Read"
                        },
                        {
                        "Name": "EmailAddress",
                        "Value": "scott@burtonconstruction.net",
                        "Security": "Read"
                        }
                        ],
             "Company": {
             "CompanyId": "8fe964af-3a19-42d3-ac74-5a5264b9218a",
             "CompanyName": "City of Kirkland"
             },
             "ContactLink": "http://localjocservice.egordian.com/v1/Users/78917F4D-84B7-4195-9F12-E9F5622B0BCEC/Contacts/95536b61-a66b-49cd-83e1-61c9a21da161"
             },
             {
             "Id": "153598aa-e0f5-4656-874d-88b130b17626",
             "Fields": [
                        {
                        "Name": "Suffix",
                        "Value": "",
                        "Security": "Read"
                        },
                        {
                        "Name": "FirstName",
                        "Value": "Rik",
                        "Security": "Read"
                        },
                        {
                        "Name": "MiddleName",
                        "Value": "",
                        "Security": "Read"
                        },
                        {
                        "Name": "LastName",
                        "Value": "Mayer",
                        "Security": "Read"
                        },
                        {
                        "Name": "DisplayName",
                        "Value": "Rik Mayer",
                        "Security": "Read"
                        },
                        {
                        "Name": "Role",
                        "Value": "Inspector",
                        "Security": "Read"
                        },
                        {
                        "Name": "TeleBusiness1",
                        "Value": "425-587-3839",
                        "Security": "Read"
                        },
                        {
                        "Name": "TeleMobile",
                        "Value": "",
                        "Security": "Read"
                        },
                        {
                        "Name": "EmailAddress",
                        "Value": "RMayer@kirklandwa.gov",
                        "Security": "Read"
                        }
                        ],
             "Company": {
             "CompanyId": "8fe964af-3a19-42d3-ac74-5a5264b9218a",
             "CompanyName": "City of Kirkland"
             },
             "ContactLink": "http://localjocservice.egordian.com/v1/Users/78917F4D-84B7-4195-9F12-E9F5622B0BCEC/Contacts/153598aa-e0f5-4656-874d-88b130b17626"
             },
             {
             "Id": "2aa28a5f-4f05-4344-9180-e3697795e20f",
             "Fields": [
                        {
                        "Name": "Suffix",
                        "Value": "",
                        "Security": "Read"
                        },
                        {
                        "Name": "FirstName",
                        "Value": "Aaron",
                        "Security": "Read"
                        },
                        {
                        "Name": "MiddleName",
                        "Value": "",
                        "Security": "Read"
                        },
                        {
                        "Name": "LastName",
                        "Value": "McDonald",
                        "Security": "Read"
                        },
                        {
                        "Name": "DisplayName",
                        "Value": "Aaron McDonald",
                        "Security": "Read"
                        },
                        {
                        "Name": "Role",
                        "Value": "Project Manager",
                        "Security": "Read"
                        },
                        {
                        "Name": "TeleBusiness1",
                        "Value": "",
                        "Security": "Read"
                        },
                        {
                        "Name": "TeleMobile",
                        "Value": "",
                        "Security": "Read"
                        },
                        {
                        "Name": "EmailAddress",
                        "Value": "amcdonald@kirklandwa.gov",
                        "Security": "Read"
                        }
                        ],
             "Company": {
             "CompanyId": "8fe964af-3a19-42d3-ac74-5a5264b9218a",
             "CompanyName": "City of Kirkland"
             },
             "ContactLink": "http://localjocservice.egordian.com/v1/Users/78917F4D-84B7-4195-9F12-E9F5622B0BCEC/Contacts/2aa28a5f-4f05-4344-9180-e3697795e20f"
             }
             ],
    "Description": ""
}